<?xml version="1.0" encoding="UTF-8" ?>
<testsuite failures="0" time="1.997" errors="0" skipped="0" tests="5" name="tp_gl_oboissar.robotv1.BatteryUnitTest">
  <properties>
    <property name="java.runtime.name" value="Java(TM) SE Runtime Environment"/>
    <property name="sun.boot.library.path" value="/opt/jdk1.7.0_25/jre/lib/amd64"/>
    <property name="java.vm.version" value="23.25-b01"/>
    <property name="java.vm.vendor" value="Oracle Corporation"/>
    <property name="java.vendor.url" value="http://java.oracle.com/"/>
    <property name="path.separator" value=":"/>
    <property name="guice.disable.misplaced.annotation.check" value="true"/>
    <property name="java.vm.name" value="Java HotSpot(TM) 64-Bit Server VM"/>
    <property name="file.encoding.pkg" value="sun.io"/>
    <property name="user.country" value="FR"/>
    <property name="sun.java.launcher" value="SUN_STANDARD"/>
    <property name="sun.os.patch.level" value="unknown"/>
    <property name="java.vm.specification.name" value="Java Virtual Machine Specification"/>
    <property name="user.dir" value="/afs/deptinfo-st.univ-fcomte.fr/users/oboissar/Documents/Compilation/projet/m1_comp1/boissard/robot"/>
    <property name="java.runtime.version" value="1.7.0_25-b15"/>
    <property name="java.awt.graphicsenv" value="sun.awt.X11GraphicsEnvironment"/>
    <property name="java.endorsed.dirs" value="/opt/jdk1.7.0_25/jre/lib/endorsed"/>
    <property name="os.arch" value="amd64"/>
    <property name="java.io.tmpdir" value="/tmp"/>
    <property name="line.separator" value="
"/>
    <property name="java.vm.specification.vendor" value="Oracle Corporation"/>
    <property name="os.name" value="Linux"/>
    <property name="classworlds.conf" value="/afs/deptinfo-st.univ-fcomte.fr/users/oboissar/workspace/.metadata/.plugins/org.eclipse.m2e.launching/launches/m2conf516798876104446657.tmp"/>
    <property name="sun.jnu.encoding" value="UTF-8"/>
    <property name="java.library.path" value="/usr/java/packages/lib/amd64:/usr/lib64:/lib64:/lib:/usr/lib"/>
    <property name="java.specification.name" value="Java Platform API Specification"/>
    <property name="java.class.version" value="51.0"/>
    <property name="sun.management.compiler" value="HotSpot 64-Bit Tiered Compilers"/>
    <property name="os.version" value="3.2.0-4-amd64"/>
    <property name="user.home" value="/afs/deptinfo-st.univ-fcomte.fr/users/oboissar"/>
    <property name="user.timezone" value="Europe/Paris"/>
    <property name="java.awt.printerjob" value="sun.print.PSPrinterJob"/>
    <property name="file.encoding" value="UTF-8"/>
    <property name="java.specification.version" value="1.7"/>
    <property name="user.name" value="oboissar"/>
    <property name="java.class.path" value="/afs/deptinfo-st.univ-fcomte.fr/users/oboissar/.eclipse/org.eclipse.platform_4.3.2_1473617060_linux_gtk_x86_64/configuration/org.eclipse.osgi/bundles/410/1/.cp/jars/plexus-classworlds-2.4.jar"/>
    <property name="java.vm.specification.version" value="1.7"/>
    <property name="sun.arch.data.model" value="64"/>
    <property name="java.home" value="/opt/jdk1.7.0_25/jre"/>
    <property name="sun.java.command" value="org.codehaus.plexus.classworlds.launcher.Launcher -B -s /afs/deptinfo-st.univ-fcomte.fr/users/oboissar/.m2/settings.xml test"/>
    <property name="java.specification.vendor" value="Oracle Corporation"/>
    <property name="user.language" value="fr"/>
    <property name="awt.toolkit" value="sun.awt.X11.XToolkit"/>
    <property name="java.vm.info" value="mixed mode"/>
    <property name="java.version" value="1.7.0_25"/>
    <property name="java.ext.dirs" value="/opt/jdk1.7.0_25/jre/lib/ext:/usr/java/packages/lib/ext"/>
    <property name="securerandom.source" value="file:/dev/./urandom"/>
    <property name="sun.boot.class.path" value="/opt/jdk1.7.0_25/jre/lib/resources.jar:/opt/jdk1.7.0_25/jre/lib/rt.jar:/opt/jdk1.7.0_25/jre/lib/sunrsasign.jar:/opt/jdk1.7.0_25/jre/lib/jsse.jar:/opt/jdk1.7.0_25/jre/lib/jce.jar:/opt/jdk1.7.0_25/jre/lib/charsets.jar:/opt/jdk1.7.0_25/jre/lib/jfr.jar:/opt/jdk1.7.0_25/jre/classes"/>
    <property name="java.vendor" value="Oracle Corporation"/>
    <property name="maven.home" value="/afs/deptinfo-st.univ-fcomte.fr/users/oboissar/Documents/Compilation/projet/m1_comp1/boissard/robot/EMBEDDED"/>
    <property name="file.separator" value="/"/>
    <property name="java.vendor.url.bug" value="http://bugreport.sun.com/bugreport/"/>
    <property name="maven.bootclasspath" value="/afs/deptinfo-st.univ-fcomte.fr/users/oboissar/.eclipse/org.eclipse.platform_4.3.2_1473617060_linux_gtk_x86_64/configuration/org.eclipse.osgi/bundles/410/1/.cp/jars/plexus-classworlds-2.4.jar"/>
    <property name="sun.cpu.endian" value="little"/>
    <property name="sun.io.unicode.encoding" value="UnicodeLittle"/>
    <property name="sun.desktop" value="gnome"/>
    <property name="sun.cpu.isalist" value=""/>
  </properties>
  <testcase time="0" classname="tp_gl_oboissar.robotv1.BatteryUnitTest" name="testUse"/>
  <testcase time="0" classname="tp_gl_oboissar.robotv1.BatteryUnitTest" name="testUseWithInsufficientCharge"/>
  <testcase time="1.993" classname="tp_gl_oboissar.robotv1.BatteryUnitTest" name="testSetup"/>
  <testcase time="0.001" classname="tp_gl_oboissar.robotv1.BatteryUnitTest" name="testCharge"/>
  <testcase time="0" classname="tp_gl_oboissar.robotv1.BatteryUnitTest" name="testUseMax"/>
</testsuite>